<?xml version="1.0" encoding="UTF-8" standalone="no"?>
<!-- Created with Inkscape (http://www.inkscape.org/) -->

<svg
   xmlns:dc="http://purl.org/dc/elements/1.1/"
   xmlns:cc="http://creativecommons.org/ns#"
   xmlns:rdf="http://www.w3.org/1999/02/22-rdf-syntax-ns#"
   xmlns:svg="http://www.w3.org/2000/svg"
   xmlns="http://www.w3.org/2000/svg"
   xmlns:sodipodi="http://sodipodi.sourceforge.net/DTD/sodipodi-0.dtd"
   xmlns:inkscape="http://www.inkscape.org/namespaces/inkscape"
   id="svg8"
   version="1.1"
   viewBox="0 0 210 297"
   height="297mm"
   width="210mm"
   inkscape:version="0.92.1 r"
   sodipodi:docname="02-koords.svg"
   inkscape:export-filename="/home/haraldei/src/jsgame/doc/imgs/02-koords-grid.png"
   inkscape:export-xdpi="70.440002"
   inkscape:export-ydpi="70.440002">
  <sodipodi:namedview
     inkscape:window-maximized="1"
     inkscape:window-y="18"
     inkscape:window-x="0"
     inkscape:window-height="1033"
     inkscape:window-width="1920"
     inkscape:measure-end="0,0"
     inkscape:measure-start="0,0"
     showgrid="false"
     inkscape:current-layer="svg8"
     inkscape:document-units="mm"
     inkscape:cy="743.06999"
     inkscape:cx="-155.94431"
     inkscape:zoom="0.7"
     inkscape:pageshadow="2"
     inkscape:pageopacity="0.0"
     borderopacity="1.0"
     bordercolor="#666666"
     pagecolor="#ffffff"
     id="base"
     showguides="true"
     inkscape:guide-bbox="true" />
  <defs
     id="defs2" />
  <metadata
     id="metadata5">
    <rdf:RDF>
      <cc:Work
         rdf:about="">
        <dc:format>image/svg+xml</dc:format>
        <dc:type
           rdf:resource="http://purl.org/dc/dcmitype/StillImage" />
        <dc:title></dc:title>
      </cc:Work>
    </rdf:RDF>
  </metadata>
  <g
     inkscape:label="Layer 1"
     inkscape:groupmode="layer"
     id="layer1" />
  <g
     id="g19774">
    <text
       xml:space="preserve"
       style="font-style:normal;font-variant:normal;font-weight:normal;font-stretch:normal;font-size:6.02667952px;line-height:3.76667476px;font-family:'Noto Serif';-inkscape-font-specification:'Noto Serif, Normal';text-align:start;letter-spacing:0px;word-spacing:0px;writing-mode:lr-tb;text-anchor:start;fill:#000000;fill-opacity:1;stroke:none;stroke-width:0.15066698px;stroke-linecap:butt;stroke-linejoin:miter;stroke-opacity:1"
       x="26.931644"
       y="69.86219"
       id="text12821"><tspan
         sodipodi:role="line"
         id="tspan12819"
         x="26.931644"
         y="69.86219"
         style="stroke-width:0.15066698px">0</tspan></text>
    <text
       id="text12825"
       y="88.57106"
       x="20.249907"
       style="font-style:normal;font-variant:normal;font-weight:normal;font-stretch:normal;font-size:6.02667952px;line-height:3.76667476px;font-family:'Noto Serif';-inkscape-font-specification:'Noto Serif, Normal';text-align:start;letter-spacing:0px;word-spacing:0px;writing-mode:lr-tb;text-anchor:start;fill:#000000;fill-opacity:1;stroke:none;stroke-width:0.15066698px;stroke-linecap:butt;stroke-linejoin:miter;stroke-opacity:1"
       xml:space="preserve"><tspan
         style="stroke-width:0.15066698px"
         y="88.57106"
         x="20.249907"
         id="tspan12823"
         sodipodi:role="line">100</tspan></text>
    <text
       xml:space="preserve"
       style="font-style:normal;font-variant:normal;font-weight:normal;font-stretch:normal;font-size:6.02667952px;line-height:3.76667476px;font-family:'Noto Serif';-inkscape-font-specification:'Noto Serif, Normal';text-align:start;letter-spacing:0px;word-spacing:0px;writing-mode:lr-tb;text-anchor:start;fill:#000000;fill-opacity:1;stroke:none;stroke-width:0.15066698px;stroke-linecap:butt;stroke-linejoin:miter;stroke-opacity:1"
       x="20.249907"
       y="108.3585"
       id="text12831"><tspan
         sodipodi:role="line"
         id="tspan12829"
         x="20.249907"
         y="108.3585"
         style="stroke-width:0.15066698px">200</tspan></text>
    <text
       id="text12835"
       y="128.54684"
       x="20.249907"
       style="font-style:normal;font-variant:normal;font-weight:normal;font-stretch:normal;font-size:6.02667952px;line-height:3.76667476px;font-family:'Noto Serif';-inkscape-font-specification:'Noto Serif, Normal';text-align:start;letter-spacing:0px;word-spacing:0px;writing-mode:lr-tb;text-anchor:start;fill:#000000;fill-opacity:1;stroke:none;stroke-width:0.15066698px;stroke-linecap:butt;stroke-linejoin:miter;stroke-opacity:1"
       xml:space="preserve"><tspan
         style="stroke-width:0.15066698px"
         y="128.54684"
         x="20.249907"
         id="tspan12833"
         sodipodi:role="line">300</tspan></text>
    <text
       xml:space="preserve"
       style="font-style:normal;font-variant:normal;font-weight:normal;font-stretch:normal;font-size:6.02667952px;line-height:3.76667476px;font-family:'Noto Serif';-inkscape-font-specification:'Noto Serif, Normal';text-align:start;letter-spacing:0px;word-spacing:0px;writing-mode:lr-tb;text-anchor:start;fill:#000000;fill-opacity:1;stroke:none;stroke-width:0.15066698px;stroke-linecap:butt;stroke-linejoin:miter;stroke-opacity:1"
       x="20.249907"
       y="147.98874"
       id="text12839"><tspan
         sodipodi:role="line"
         id="tspan12837"
         x="20.249907"
         y="147.98874"
         style="stroke-width:0.15066698px">400</tspan></text>
    <text
       id="text12843"
       y="168.47679"
       x="20.249907"
       style="font-style:normal;font-variant:normal;font-weight:normal;font-stretch:normal;font-size:6.02667952px;line-height:3.76667476px;font-family:'Noto Serif';-inkscape-font-specification:'Noto Serif, Normal';text-align:start;letter-spacing:0px;word-spacing:0px;writing-mode:lr-tb;text-anchor:start;fill:#000000;fill-opacity:1;stroke:none;stroke-width:0.15066698px;stroke-linecap:butt;stroke-linejoin:miter;stroke-opacity:1"
       xml:space="preserve"><tspan
         style="stroke-width:0.15066698px"
         y="168.47679"
         x="20.249907"
         id="tspan12841"
         sodipodi:role="line">500</tspan></text>
    <text
       xml:space="preserve"
       style="font-style:normal;font-variant:normal;font-weight:normal;font-stretch:normal;font-size:6.02667952px;line-height:3.76667476px;font-family:'Noto Serif';-inkscape-font-specification:'Noto Serif, Normal';text-align:start;letter-spacing:0px;word-spacing:0px;writing-mode:lr-tb;text-anchor:start;fill:#000000;fill-opacity:1;stroke:none;stroke-width:0.15066698px;stroke-linecap:butt;stroke-linejoin:miter;stroke-opacity:1"
       x="20.249907"
       y="187.34222"
       id="text12847"><tspan
         sodipodi:role="line"
         id="tspan12845"
         x="20.249907"
         y="187.34222"
         style="stroke-width:0.15066698px">600</tspan></text>
    <text
       id="text12853"
       y="64.5168"
       x="31.876131"
       style="font-style:normal;font-variant:normal;font-weight:normal;font-stretch:normal;font-size:6.02667952px;line-height:3.76667476px;font-family:'Noto Serif';-inkscape-font-specification:'Noto Serif, Normal';text-align:start;letter-spacing:0px;word-spacing:0px;writing-mode:lr-tb;text-anchor:start;fill:#000000;fill-opacity:1;stroke:none;stroke-width:0.15066698px;stroke-linecap:butt;stroke-linejoin:miter;stroke-opacity:1"
       xml:space="preserve"><tspan
         style="stroke-width:0.15066698px"
         y="64.5168"
         x="31.876131"
         id="tspan12851"
         sodipodi:role="line">0</tspan></text>
    <text
       xml:space="preserve"
       style="font-style:normal;font-variant:normal;font-weight:normal;font-stretch:normal;font-size:6.02667952px;line-height:3.76667476px;font-family:'Noto Serif';-inkscape-font-specification:'Noto Serif, Normal';text-align:start;letter-spacing:0px;word-spacing:0px;writing-mode:lr-tb;text-anchor:start;fill:#000000;fill-opacity:1;stroke:none;stroke-width:0.15066698px;stroke-linecap:butt;stroke-linejoin:miter;stroke-opacity:1"
       x="47.755741"
       y="64.5168"
       id="text12857"><tspan
         sodipodi:role="line"
         id="tspan12855"
         x="47.755741"
         y="64.5168"
         style="stroke-width:0.15066698px">100</tspan></text>
    <text
       id="text12861"
       y="64.650436"
       x="67.686317"
       style="font-style:normal;font-variant:normal;font-weight:normal;font-stretch:normal;font-size:6.02667952px;line-height:3.76667476px;font-family:'Noto Serif';-inkscape-font-specification:'Noto Serif, Normal';text-align:start;letter-spacing:0px;word-spacing:0px;writing-mode:lr-tb;text-anchor:start;fill:#000000;fill-opacity:1;stroke:none;stroke-width:0.15066698px;stroke-linecap:butt;stroke-linejoin:miter;stroke-opacity:1"
       xml:space="preserve"><tspan
         style="stroke-width:0.15066698px"
         y="64.650436"
         x="67.686317"
         id="tspan12859"
         sodipodi:role="line">200</tspan></text>
    <text
       xml:space="preserve"
       style="font-style:normal;font-variant:normal;font-weight:normal;font-stretch:normal;font-size:6.02667952px;line-height:3.76667476px;font-family:'Noto Serif';-inkscape-font-specification:'Noto Serif, Normal';text-align:start;letter-spacing:0px;word-spacing:0px;writing-mode:lr-tb;text-anchor:start;fill:#000000;fill-opacity:1;stroke:none;stroke-width:0.15066698px;stroke-linecap:butt;stroke-linejoin:miter;stroke-opacity:1"
       x="87.229416"
       y="64.650436"
       id="text12865"><tspan
         sodipodi:role="line"
         id="tspan12863"
         x="87.229416"
         y="64.650436"
         style="stroke-width:0.15066698px">300</tspan></text>
    <text
       id="text12869"
       y="64.650444"
       x="107.07221"
       style="font-style:normal;font-variant:normal;font-weight:normal;font-stretch:normal;font-size:6.02667952px;line-height:3.76667476px;font-family:'Noto Serif';-inkscape-font-specification:'Noto Serif, Normal';text-align:start;letter-spacing:0px;word-spacing:0px;writing-mode:lr-tb;text-anchor:start;fill:#000000;fill-opacity:1;stroke:none;stroke-width:0.15066698px;stroke-linecap:butt;stroke-linejoin:miter;stroke-opacity:1"
       xml:space="preserve"><tspan
         style="stroke-width:0.15066698px"
         y="64.650444"
         x="107.07221"
         id="tspan12867"
         sodipodi:role="line">400</tspan></text>
    <text
       xml:space="preserve"
       style="font-style:normal;font-variant:normal;font-weight:normal;font-stretch:normal;font-size:6.02667952px;line-height:3.76667476px;font-family:'Noto Serif';-inkscape-font-specification:'Noto Serif, Normal';text-align:start;letter-spacing:0px;word-spacing:0px;writing-mode:lr-tb;text-anchor:start;fill:#000000;fill-opacity:1;stroke:none;stroke-width:0.15066698px;stroke-linecap:butt;stroke-linejoin:miter;stroke-opacity:1"
       x="127.15936"
       y="64.650444"
       id="text12873"><tspan
         sodipodi:role="line"
         id="tspan12871"
         x="127.15936"
         y="64.650444"
         style="stroke-width:0.15066698px">500</tspan></text>
    <text
       id="text12877"
       y="64.650444"
       x="146.91437"
       style="font-style:normal;font-variant:normal;font-weight:normal;font-stretch:normal;font-size:6.02667952px;line-height:3.76667476px;font-family:'Noto Serif';-inkscape-font-specification:'Noto Serif, Normal';text-align:start;letter-spacing:0px;word-spacing:0px;writing-mode:lr-tb;text-anchor:start;fill:#000000;fill-opacity:1;stroke:none;stroke-width:0.15066698px;stroke-linecap:butt;stroke-linejoin:miter;stroke-opacity:1"
       xml:space="preserve"><tspan
         style="stroke-width:0.15066698px"
         y="64.650444"
         x="146.91437"
         id="tspan12875"
         sodipodi:role="line">600</tspan></text>
    <text
       xml:space="preserve"
       style="font-style:normal;font-variant:normal;font-weight:normal;font-stretch:normal;font-size:6.02667952px;line-height:3.76667476px;font-family:'Noto Serif';-inkscape-font-specification:'Noto Serif, Normal';text-align:start;letter-spacing:0px;word-spacing:0px;writing-mode:lr-tb;text-anchor:start;fill:#000000;fill-opacity:1;stroke:none;stroke-width:0.15066698px;stroke-linecap:butt;stroke-linejoin:miter;stroke-opacity:1"
       x="166.24554"
       y="64.650444"
       id="text12881"><tspan
         sodipodi:role="line"
         id="tspan12879"
         x="166.24554"
         y="64.650444"
         style="stroke-width:0.15066698px">700</tspan></text>
    <text
       id="text12885"
       y="64.650444"
       x="185.82108"
       style="font-style:normal;font-variant:normal;font-weight:normal;font-stretch:normal;font-size:6.02667952px;line-height:3.76667476px;font-family:'Noto Serif';-inkscape-font-specification:'Noto Serif, Normal';text-align:start;letter-spacing:0px;word-spacing:0px;writing-mode:lr-tb;text-anchor:start;fill:#000000;fill-opacity:1;stroke:none;stroke-width:0.15066698px;stroke-linecap:butt;stroke-linejoin:miter;stroke-opacity:1"
       xml:space="preserve"><tspan
         style="stroke-width:0.15066698px"
         y="64.650444"
         x="185.82108"
         id="tspan12883"
         sodipodi:role="line">800</tspan></text>
    <g
       transform="translate(33.030236,67.199607)"
       inkscape:label="Grid_Polar:X8:Y6"
       id="g19414">
      <g
         inkscape:label="MajorXGridlines"
         id="g19142">
        <path
           inkscape:connector-curvature="0"
           d="M 19.84375,0 V 119.0625"
           style="fill:none;stroke:#000000;stroke-width:0.39687499"
           inkscape:label="MajorXDiv1"
           id="path19128" />
        <path
           inkscape:connector-curvature="0"
           d="M 39.6875,0 V 119.0625"
           style="fill:none;stroke:#000000;stroke-width:0.39687499"
           inkscape:label="MajorXDiv2"
           id="path19130" />
        <path
           inkscape:connector-curvature="0"
           d="M 59.53125,0 V 119.0625"
           style="fill:none;stroke:#000000;stroke-width:0.39687499"
           inkscape:label="MajorXDiv3"
           id="path19132" />
        <path
           inkscape:connector-curvature="0"
           d="M 79.375,0 V 119.0625"
           style="fill:none;stroke:#000000;stroke-width:0.39687499"
           inkscape:label="MajorXDiv4"
           id="path19134" />
        <path
           inkscape:connector-curvature="0"
           d="M 99.21875,0 V 119.0625"
           style="fill:none;stroke:#000000;stroke-width:0.39687499"
           inkscape:label="MajorXDiv5"
           id="path19136" />
        <path
           inkscape:connector-curvature="0"
           d="M 119.0625,0 V 119.0625"
           style="fill:none;stroke:#000000;stroke-width:0.39687499"
           inkscape:label="MajorXDiv6"
           id="path19138" />
        <path
           inkscape:connector-curvature="0"
           d="M 138.90625,0 V 119.0625"
           style="fill:none;stroke:#000000;stroke-width:0.39687499"
           inkscape:label="MajorXDiv7"
           id="path19140" />
      </g>
      <g
         inkscape:label="MajorYGridlines"
         id="g19154">
        <path
           inkscape:connector-curvature="0"
           d="M 0,19.84375 H 158.75"
           style="fill:none;stroke:#000000;stroke-width:0.39687499"
           inkscape:label="MajorYDiv1"
           id="path19144" />
        <path
           inkscape:connector-curvature="0"
           d="M 0,39.6875 H 158.75"
           style="fill:none;stroke:#000000;stroke-width:0.39687499"
           inkscape:label="MajorYDiv2"
           id="path19146" />
        <path
           inkscape:connector-curvature="0"
           d="M 0,59.53125 H 158.75"
           style="fill:none;stroke:#000000;stroke-width:0.39687499"
           inkscape:label="MajorYDiv3"
           id="path19148" />
        <path
           inkscape:connector-curvature="0"
           d="M 0,79.375 H 158.75"
           style="fill:none;stroke:#000000;stroke-width:0.39687499"
           inkscape:label="MajorYDiv4"
           id="path19150" />
        <path
           inkscape:connector-curvature="0"
           d="M 0,99.21875 H 158.75"
           style="fill:none;stroke:#000000;stroke-width:0.39687499"
           inkscape:label="MajorYDiv5"
           id="path19152" />
      </g>
      <g
         inkscape:label="SubMinorXGridlines"
         id="g19300">
        <path
           inkscape:connector-curvature="0"
           d="M 1.984375,0 V 119.0625"
           style="fill:none;stroke:#000000;stroke-width:0.07937501"
           inkscape:label="SubminorXDiv0:0:1"
           id="path19156" />
        <path
           inkscape:connector-curvature="0"
           d="M 3.96875,0 V 119.0625"
           style="fill:none;stroke:#000000;stroke-width:0.07937501"
           inkscape:label="SubminorXDiv0:0:2"
           id="path19158" />
        <path
           inkscape:connector-curvature="0"
           d="M 5.953125,0 V 119.0625"
           style="fill:none;stroke:#000000;stroke-width:0.07937501"
           inkscape:label="SubminorXDiv0:0:3"
           id="path19160" />
        <path
           inkscape:connector-curvature="0"
           d="M 7.9375,0 V 119.0625"
           style="fill:none;stroke:#000000;stroke-width:0.07937501"
           inkscape:label="SubminorXDiv0:0:4"
           id="path19162" />
        <path
           inkscape:connector-curvature="0"
           d="M 9.921875,0 V 119.0625"
           style="fill:none;stroke:#000000;stroke-width:0.07937501"
           inkscape:label="SubminorXDiv0:0:5"
           id="path19164" />
        <path
           inkscape:connector-curvature="0"
           d="M 11.90625,0 V 119.0625"
           style="fill:none;stroke:#000000;stroke-width:0.07937501"
           inkscape:label="SubminorXDiv0:0:6"
           id="path19166" />
        <path
           inkscape:connector-curvature="0"
           d="M 13.890625,0 V 119.0625"
           style="fill:none;stroke:#000000;stroke-width:0.07937501"
           inkscape:label="SubminorXDiv0:0:7"
           id="path19168" />
        <path
           inkscape:connector-curvature="0"
           d="M 15.875,0 V 119.0625"
           style="fill:none;stroke:#000000;stroke-width:0.07937501"
           inkscape:label="SubminorXDiv0:0:8"
           id="path19170" />
        <path
           inkscape:connector-curvature="0"
           d="M 17.859375,0 V 119.0625"
           style="fill:none;stroke:#000000;stroke-width:0.07937501"
           inkscape:label="SubminorXDiv0:0:9"
           id="path19172" />
        <path
           inkscape:connector-curvature="0"
           d="M 21.828125,0 V 119.0625"
           style="fill:none;stroke:#000000;stroke-width:0.07937501"
           inkscape:label="SubminorXDiv1:0:1"
           id="path19174" />
        <path
           inkscape:connector-curvature="0"
           d="M 23.8125,0 V 119.0625"
           style="fill:none;stroke:#000000;stroke-width:0.07937501"
           inkscape:label="SubminorXDiv1:0:2"
           id="path19176" />
        <path
           inkscape:connector-curvature="0"
           d="M 25.796875,0 V 119.0625"
           style="fill:none;stroke:#000000;stroke-width:0.07937501"
           inkscape:label="SubminorXDiv1:0:3"
           id="path19178" />
        <path
           inkscape:connector-curvature="0"
           d="M 27.78125,0 V 119.0625"
           style="fill:none;stroke:#000000;stroke-width:0.07937501"
           inkscape:label="SubminorXDiv1:0:4"
           id="path19180" />
        <path
           inkscape:connector-curvature="0"
           d="M 29.765625,0 V 119.0625"
           style="fill:none;stroke:#000000;stroke-width:0.07937501"
           inkscape:label="SubminorXDiv1:0:5"
           id="path19182" />
        <path
           inkscape:connector-curvature="0"
           d="M 31.75,0 V 119.0625"
           style="fill:none;stroke:#000000;stroke-width:0.07937501"
           inkscape:label="SubminorXDiv1:0:6"
           id="path19184" />
        <path
           inkscape:connector-curvature="0"
           d="M 33.734375,0 V 119.0625"
           style="fill:none;stroke:#000000;stroke-width:0.07937501"
           inkscape:label="SubminorXDiv1:0:7"
           id="path19186" />
        <path
           inkscape:connector-curvature="0"
           d="M 35.71875,0 V 119.0625"
           style="fill:none;stroke:#000000;stroke-width:0.07937501"
           inkscape:label="SubminorXDiv1:0:8"
           id="path19188" />
        <path
           inkscape:connector-curvature="0"
           d="M 37.703125,0 V 119.0625"
           style="fill:none;stroke:#000000;stroke-width:0.07937501"
           inkscape:label="SubminorXDiv1:0:9"
           id="path19190" />
        <path
           inkscape:connector-curvature="0"
           d="M 41.671875,0 V 119.0625"
           style="fill:none;stroke:#000000;stroke-width:0.07937501"
           inkscape:label="SubminorXDiv2:0:1"
           id="path19192" />
        <path
           inkscape:connector-curvature="0"
           d="M 43.65625,0 V 119.0625"
           style="fill:none;stroke:#000000;stroke-width:0.07937501"
           inkscape:label="SubminorXDiv2:0:2"
           id="path19194" />
        <path
           inkscape:connector-curvature="0"
           d="M 45.640625,0 V 119.0625"
           style="fill:none;stroke:#000000;stroke-width:0.07937501"
           inkscape:label="SubminorXDiv2:0:3"
           id="path19196" />
        <path
           inkscape:connector-curvature="0"
           d="M 47.625,0 V 119.0625"
           style="fill:none;stroke:#000000;stroke-width:0.07937501"
           inkscape:label="SubminorXDiv2:0:4"
           id="path19198" />
        <path
           inkscape:connector-curvature="0"
           d="M 49.609375,0 V 119.0625"
           style="fill:none;stroke:#000000;stroke-width:0.07937501"
           inkscape:label="SubminorXDiv2:0:5"
           id="path19200" />
        <path
           inkscape:connector-curvature="0"
           d="M 51.59375,0 V 119.0625"
           style="fill:none;stroke:#000000;stroke-width:0.07937501"
           inkscape:label="SubminorXDiv2:0:6"
           id="path19202" />
        <path
           inkscape:connector-curvature="0"
           d="M 53.578125,0 V 119.0625"
           style="fill:none;stroke:#000000;stroke-width:0.07937501"
           inkscape:label="SubminorXDiv2:0:7"
           id="path19204" />
        <path
           inkscape:connector-curvature="0"
           d="M 55.5625,0 V 119.0625"
           style="fill:none;stroke:#000000;stroke-width:0.07937501"
           inkscape:label="SubminorXDiv2:0:8"
           id="path19206" />
        <path
           inkscape:connector-curvature="0"
           d="M 57.546875,0 V 119.0625"
           style="fill:none;stroke:#000000;stroke-width:0.07937501"
           inkscape:label="SubminorXDiv2:0:9"
           id="path19208" />
        <path
           inkscape:connector-curvature="0"
           d="M 61.515625,0 V 119.0625"
           style="fill:none;stroke:#000000;stroke-width:0.07937501"
           inkscape:label="SubminorXDiv3:0:1"
           id="path19210" />
        <path
           inkscape:connector-curvature="0"
           d="M 63.5,0 V 119.0625"
           style="fill:none;stroke:#000000;stroke-width:0.07937501"
           inkscape:label="SubminorXDiv3:0:2"
           id="path19212" />
        <path
           inkscape:connector-curvature="0"
           d="M 65.484375,0 V 119.0625"
           style="fill:none;stroke:#000000;stroke-width:0.07937501"
           inkscape:label="SubminorXDiv3:0:3"
           id="path19214" />
        <path
           inkscape:connector-curvature="0"
           d="M 67.46875,0 V 119.0625"
           style="fill:none;stroke:#000000;stroke-width:0.07937501"
           inkscape:label="SubminorXDiv3:0:4"
           id="path19216" />
        <path
           inkscape:connector-curvature="0"
           d="M 69.453125,0 V 119.0625"
           style="fill:none;stroke:#000000;stroke-width:0.07937501"
           inkscape:label="SubminorXDiv3:0:5"
           id="path19218" />
        <path
           inkscape:connector-curvature="0"
           d="M 71.4375,0 V 119.0625"
           style="fill:none;stroke:#000000;stroke-width:0.07937501"
           inkscape:label="SubminorXDiv3:0:6"
           id="path19220" />
        <path
           inkscape:connector-curvature="0"
           d="M 73.421875,0 V 119.0625"
           style="fill:none;stroke:#000000;stroke-width:0.07937501"
           inkscape:label="SubminorXDiv3:0:7"
           id="path19222" />
        <path
           inkscape:connector-curvature="0"
           d="M 75.40625,0 V 119.0625"
           style="fill:none;stroke:#000000;stroke-width:0.07937501"
           inkscape:label="SubminorXDiv3:0:8"
           id="path19224" />
        <path
           inkscape:connector-curvature="0"
           d="M 77.390625,0 V 119.0625"
           style="fill:none;stroke:#000000;stroke-width:0.07937501"
           inkscape:label="SubminorXDiv3:0:9"
           id="path19226" />
        <path
           inkscape:connector-curvature="0"
           d="M 81.359375,0 V 119.0625"
           style="fill:none;stroke:#000000;stroke-width:0.07937501"
           inkscape:label="SubminorXDiv4:0:1"
           id="path19228" />
        <path
           inkscape:connector-curvature="0"
           d="M 83.34375,0 V 119.0625"
           style="fill:none;stroke:#000000;stroke-width:0.07937501"
           inkscape:label="SubminorXDiv4:0:2"
           id="path19230" />
        <path
           inkscape:connector-curvature="0"
           d="M 85.328125,0 V 119.0625"
           style="fill:none;stroke:#000000;stroke-width:0.07937501"
           inkscape:label="SubminorXDiv4:0:3"
           id="path19232" />
        <path
           inkscape:connector-curvature="0"
           d="M 87.3125,0 V 119.0625"
           style="fill:none;stroke:#000000;stroke-width:0.07937501"
           inkscape:label="SubminorXDiv4:0:4"
           id="path19234" />
        <path
           inkscape:connector-curvature="0"
           d="M 89.296875,0 V 119.0625"
           style="fill:none;stroke:#000000;stroke-width:0.07937501"
           inkscape:label="SubminorXDiv4:0:5"
           id="path19236" />
        <path
           inkscape:connector-curvature="0"
           d="M 91.28125,0 V 119.0625"
           style="fill:none;stroke:#000000;stroke-width:0.07937501"
           inkscape:label="SubminorXDiv4:0:6"
           id="path19238" />
        <path
           inkscape:connector-curvature="0"
           d="M 93.265625,0 V 119.0625"
           style="fill:none;stroke:#000000;stroke-width:0.07937501"
           inkscape:label="SubminorXDiv4:0:7"
           id="path19240" />
        <path
           inkscape:connector-curvature="0"
           d="M 95.25,0 V 119.0625"
           style="fill:none;stroke:#000000;stroke-width:0.07937501"
           inkscape:label="SubminorXDiv4:0:8"
           id="path19242" />
        <path
           inkscape:connector-curvature="0"
           d="M 97.234375,0 V 119.0625"
           style="fill:none;stroke:#000000;stroke-width:0.07937501"
           inkscape:label="SubminorXDiv4:0:9"
           id="path19244" />
        <path
           inkscape:connector-curvature="0"
           d="M 101.20312,0 V 119.0625"
           style="fill:none;stroke:#000000;stroke-width:0.07937501"
           inkscape:label="SubminorXDiv5:0:1"
           id="path19246" />
        <path
           inkscape:connector-curvature="0"
           d="M 103.1875,0 V 119.0625"
           style="fill:none;stroke:#000000;stroke-width:0.07937501"
           inkscape:label="SubminorXDiv5:0:2"
           id="path19248" />
        <path
           inkscape:connector-curvature="0"
           d="M 105.17187,0 V 119.0625"
           style="fill:none;stroke:#000000;stroke-width:0.07937501"
           inkscape:label="SubminorXDiv5:0:3"
           id="path19250" />
        <path
           inkscape:connector-curvature="0"
           d="M 107.15625,0 V 119.0625"
           style="fill:none;stroke:#000000;stroke-width:0.07937501"
           inkscape:label="SubminorXDiv5:0:4"
           id="path19252" />
        <path
           inkscape:connector-curvature="0"
           d="M 109.14062,0 V 119.0625"
           style="fill:none;stroke:#000000;stroke-width:0.07937501"
           inkscape:label="SubminorXDiv5:0:5"
           id="path19254" />
        <path
           inkscape:connector-curvature="0"
           d="M 111.125,0 V 119.0625"
           style="fill:none;stroke:#000000;stroke-width:0.07937501"
           inkscape:label="SubminorXDiv5:0:6"
           id="path19256" />
        <path
           inkscape:connector-curvature="0"
           d="M 113.10937,0 V 119.0625"
           style="fill:none;stroke:#000000;stroke-width:0.07937501"
           inkscape:label="SubminorXDiv5:0:7"
           id="path19258" />
        <path
           inkscape:connector-curvature="0"
           d="M 115.09375,0 V 119.0625"
           style="fill:none;stroke:#000000;stroke-width:0.07937501"
           inkscape:label="SubminorXDiv5:0:8"
           id="path19260" />
        <path
           inkscape:connector-curvature="0"
           d="M 117.07812,0 V 119.0625"
           style="fill:none;stroke:#000000;stroke-width:0.07937501"
           inkscape:label="SubminorXDiv5:0:9"
           id="path19262" />
        <path
           inkscape:connector-curvature="0"
           d="M 121.04687,0 V 119.0625"
           style="fill:none;stroke:#000000;stroke-width:0.07937501"
           inkscape:label="SubminorXDiv6:0:1"
           id="path19264" />
        <path
           inkscape:connector-curvature="0"
           d="M 123.03125,0 V 119.0625"
           style="fill:none;stroke:#000000;stroke-width:0.07937501"
           inkscape:label="SubminorXDiv6:0:2"
           id="path19266" />
        <path
           inkscape:connector-curvature="0"
           d="M 125.01562,0 V 119.0625"
           style="fill:none;stroke:#000000;stroke-width:0.07937501"
           inkscape:label="SubminorXDiv6:0:3"
           id="path19268" />
        <path
           inkscape:connector-curvature="0"
           d="M 127,0 V 119.0625"
           style="fill:none;stroke:#000000;stroke-width:0.07937501"
           inkscape:label="SubminorXDiv6:0:4"
           id="path19270" />
        <path
           inkscape:connector-curvature="0"
           d="M 128.98437,0 V 119.0625"
           style="fill:none;stroke:#000000;stroke-width:0.07937501"
           inkscape:label="SubminorXDiv6:0:5"
           id="path19272" />
        <path
           inkscape:connector-curvature="0"
           d="M 130.96875,0 V 119.0625"
           style="fill:none;stroke:#000000;stroke-width:0.07937501"
           inkscape:label="SubminorXDiv6:0:6"
           id="path19274" />
        <path
           inkscape:connector-curvature="0"
           d="M 132.95312,0 V 119.0625"
           style="fill:none;stroke:#000000;stroke-width:0.07937501"
           inkscape:label="SubminorXDiv6:0:7"
           id="path19276" />
        <path
           inkscape:connector-curvature="0"
           d="M 134.9375,0 V 119.0625"
           style="fill:none;stroke:#000000;stroke-width:0.07937501"
           inkscape:label="SubminorXDiv6:0:8"
           id="path19278" />
        <path
           inkscape:connector-curvature="0"
           d="M 136.92187,0 V 119.0625"
           style="fill:none;stroke:#000000;stroke-width:0.07937501"
           inkscape:label="SubminorXDiv6:0:9"
           id="path19280" />
        <path
           inkscape:connector-curvature="0"
           d="M 140.89062,0 V 119.0625"
           style="fill:none;stroke:#000000;stroke-width:0.07937501"
           inkscape:label="SubminorXDiv7:0:1"
           id="path19282" />
        <path
           inkscape:connector-curvature="0"
           d="M 142.875,0 V 119.0625"
           style="fill:none;stroke:#000000;stroke-width:0.07937501"
           inkscape:label="SubminorXDiv7:0:2"
           id="path19284" />
        <path
           inkscape:connector-curvature="0"
           d="M 144.85937,0 V 119.0625"
           style="fill:none;stroke:#000000;stroke-width:0.07937501"
           inkscape:label="SubminorXDiv7:0:3"
           id="path19286" />
        <path
           inkscape:connector-curvature="0"
           d="M 146.84375,0 V 119.0625"
           style="fill:none;stroke:#000000;stroke-width:0.07937501"
           inkscape:label="SubminorXDiv7:0:4"
           id="path19288" />
        <path
           inkscape:connector-curvature="0"
           d="M 148.82812,0 V 119.0625"
           style="fill:none;stroke:#000000;stroke-width:0.07937501"
           inkscape:label="SubminorXDiv7:0:5"
           id="path19290" />
        <path
           inkscape:connector-curvature="0"
           d="M 150.8125,0 V 119.0625"
           style="fill:none;stroke:#000000;stroke-width:0.07937501"
           inkscape:label="SubminorXDiv7:0:6"
           id="path19292" />
        <path
           inkscape:connector-curvature="0"
           d="M 152.79687,0 V 119.0625"
           style="fill:none;stroke:#000000;stroke-width:0.07937501"
           inkscape:label="SubminorXDiv7:0:7"
           id="path19294" />
        <path
           inkscape:connector-curvature="0"
           d="M 154.78125,0 V 119.0625"
           style="fill:none;stroke:#000000;stroke-width:0.07937501"
           inkscape:label="SubminorXDiv7:0:8"
           id="path19296" />
        <path
           inkscape:connector-curvature="0"
           d="M 156.76562,0 V 119.0625"
           style="fill:none;stroke:#000000;stroke-width:0.07937501"
           inkscape:label="SubminorXDiv7:0:9"
           id="path19298" />
      </g>
      <g
         inkscape:label="SubMinorYGridlines"
         id="g19410">
        <path
           inkscape:connector-curvature="0"
           d="M 0,1.984375 H 158.75"
           style="fill:none;stroke:#000000;stroke-width:0.07937501"
           inkscape:label="SubminorXDiv0:0:1"
           id="path19302" />
        <path
           inkscape:connector-curvature="0"
           d="M 0,3.96875 H 158.75"
           style="fill:none;stroke:#000000;stroke-width:0.07937501"
           inkscape:label="SubminorXDiv0:0:2"
           id="path19304" />
        <path
           inkscape:connector-curvature="0"
           d="M 0,5.953125 H 158.75"
           style="fill:none;stroke:#000000;stroke-width:0.07937501"
           inkscape:label="SubminorXDiv0:0:3"
           id="path19306" />
        <path
           inkscape:connector-curvature="0"
           d="M 0,7.9375 H 158.75"
           style="fill:none;stroke:#000000;stroke-width:0.07937501"
           inkscape:label="SubminorXDiv0:0:4"
           id="path19308" />
        <path
           inkscape:connector-curvature="0"
           d="M 0,9.921875 H 158.75"
           style="fill:none;stroke:#000000;stroke-width:0.07937501"
           inkscape:label="SubminorXDiv0:0:5"
           id="path19310" />
        <path
           inkscape:connector-curvature="0"
           d="M 0,11.90625 H 158.75"
           style="fill:none;stroke:#000000;stroke-width:0.07937501"
           inkscape:label="SubminorXDiv0:0:6"
           id="path19312" />
        <path
           inkscape:connector-curvature="0"
           d="M 0,13.890625 H 158.75"
           style="fill:none;stroke:#000000;stroke-width:0.07937501"
           inkscape:label="SubminorXDiv0:0:7"
           id="path19314" />
        <path
           inkscape:connector-curvature="0"
           d="M 0,15.875 H 158.75"
           style="fill:none;stroke:#000000;stroke-width:0.07937501"
           inkscape:label="SubminorXDiv0:0:8"
           id="path19316" />
        <path
           inkscape:connector-curvature="0"
           d="M 0,17.859375 H 158.75"
           style="fill:none;stroke:#000000;stroke-width:0.07937501"
           inkscape:label="SubminorXDiv0:0:9"
           id="path19318" />
        <path
           inkscape:connector-curvature="0"
           d="M 0,21.828125 H 158.75"
           style="fill:none;stroke:#000000;stroke-width:0.07937501"
           inkscape:label="SubminorXDiv1:0:1"
           id="path19320" />
        <path
           inkscape:connector-curvature="0"
           d="M 0,23.8125 H 158.75"
           style="fill:none;stroke:#000000;stroke-width:0.07937501"
           inkscape:label="SubminorXDiv1:0:2"
           id="path19322" />
        <path
           inkscape:connector-curvature="0"
           d="M 0,25.796875 H 158.75"
           style="fill:none;stroke:#000000;stroke-width:0.07937501"
           inkscape:label="SubminorXDiv1:0:3"
           id="path19324" />
        <path
           inkscape:connector-curvature="0"
           d="M 0,27.78125 H 158.75"
           style="fill:none;stroke:#000000;stroke-width:0.07937501"
           inkscape:label="SubminorXDiv1:0:4"
           id="path19326" />
        <path
           inkscape:connector-curvature="0"
           d="M 0,29.765625 H 158.75"
           style="fill:none;stroke:#000000;stroke-width:0.07937501"
           inkscape:label="SubminorXDiv1:0:5"
           id="path19328" />
        <path
           inkscape:connector-curvature="0"
           d="M 0,31.75 H 158.75"
           style="fill:none;stroke:#000000;stroke-width:0.07937501"
           inkscape:label="SubminorXDiv1:0:6"
           id="path19330" />
        <path
           inkscape:connector-curvature="0"
           d="M 0,33.734375 H 158.75"
           style="fill:none;stroke:#000000;stroke-width:0.07937501"
           inkscape:label="SubminorXDiv1:0:7"
           id="path19332" />
        <path
           inkscape:connector-curvature="0"
           d="M 0,35.71875 H 158.75"
           style="fill:none;stroke:#000000;stroke-width:0.07937501"
           inkscape:label="SubminorXDiv1:0:8"
           id="path19334" />
        <path
           inkscape:connector-curvature="0"
           d="M 0,37.703125 H 158.75"
           style="fill:none;stroke:#000000;stroke-width:0.07937501"
           inkscape:label="SubminorXDiv1:0:9"
           id="path19336" />
        <path
           inkscape:connector-curvature="0"
           d="M 0,41.671875 H 158.75"
           style="fill:none;stroke:#000000;stroke-width:0.07937501"
           inkscape:label="SubminorXDiv2:0:1"
           id="path19338" />
        <path
           inkscape:connector-curvature="0"
           d="M 0,43.65625 H 158.75"
           style="fill:none;stroke:#000000;stroke-width:0.07937501"
           inkscape:label="SubminorXDiv2:0:2"
           id="path19340" />
        <path
           inkscape:connector-curvature="0"
           d="M 0,45.640625 H 158.75"
           style="fill:none;stroke:#000000;stroke-width:0.07937501"
           inkscape:label="SubminorXDiv2:0:3"
           id="path19342" />
        <path
           inkscape:connector-curvature="0"
           d="M 0,47.625 H 158.75"
           style="fill:none;stroke:#000000;stroke-width:0.07937501"
           inkscape:label="SubminorXDiv2:0:4"
           id="path19344" />
        <path
           inkscape:connector-curvature="0"
           d="M 0,49.609375 H 158.75"
           style="fill:none;stroke:#000000;stroke-width:0.07937501"
           inkscape:label="SubminorXDiv2:0:5"
           id="path19346" />
        <path
           inkscape:connector-curvature="0"
           d="M 0,51.59375 H 158.75"
           style="fill:none;stroke:#000000;stroke-width:0.07937501"
           inkscape:label="SubminorXDiv2:0:6"
           id="path19348" />
        <path
           inkscape:connector-curvature="0"
           d="M 0,53.578125 H 158.75"
           style="fill:none;stroke:#000000;stroke-width:0.07937501"
           inkscape:label="SubminorXDiv2:0:7"
           id="path19350" />
        <path
           inkscape:connector-curvature="0"
           d="M 0,55.5625 H 158.75"
           style="fill:none;stroke:#000000;stroke-width:0.07937501"
           inkscape:label="SubminorXDiv2:0:8"
           id="path19352" />
        <path
           inkscape:connector-curvature="0"
           d="M 0,57.546875 H 158.75"
           style="fill:none;stroke:#000000;stroke-width:0.07937501"
           inkscape:label="SubminorXDiv2:0:9"
           id="path19354" />
        <path
           inkscape:connector-curvature="0"
           d="M 0,61.515625 H 158.75"
           style="fill:none;stroke:#000000;stroke-width:0.07937501"
           inkscape:label="SubminorXDiv3:0:1"
           id="path19356" />
        <path
           inkscape:connector-curvature="0"
           d="M 0,63.5 H 158.75"
           style="fill:none;stroke:#000000;stroke-width:0.07937501"
           inkscape:label="SubminorXDiv3:0:2"
           id="path19358" />
        <path
           inkscape:connector-curvature="0"
           d="M 0,65.484375 H 158.75"
           style="fill:none;stroke:#000000;stroke-width:0.07937501"
           inkscape:label="SubminorXDiv3:0:3"
           id="path19360" />
        <path
           inkscape:connector-curvature="0"
           d="M 0,67.46875 H 158.75"
           style="fill:none;stroke:#000000;stroke-width:0.07937501"
           inkscape:label="SubminorXDiv3:0:4"
           id="path19362" />
        <path
           inkscape:connector-curvature="0"
           d="M 0,69.453125 H 158.75"
           style="fill:none;stroke:#000000;stroke-width:0.07937501"
           inkscape:label="SubminorXDiv3:0:5"
           id="path19364" />
        <path
           inkscape:connector-curvature="0"
           d="M 0,71.4375 H 158.75"
           style="fill:none;stroke:#000000;stroke-width:0.07937501"
           inkscape:label="SubminorXDiv3:0:6"
           id="path19366" />
        <path
           inkscape:connector-curvature="0"
           d="M 0,73.421875 H 158.75"
           style="fill:none;stroke:#000000;stroke-width:0.07937501"
           inkscape:label="SubminorXDiv3:0:7"
           id="path19368" />
        <path
           inkscape:connector-curvature="0"
           d="M 0,75.40625 H 158.75"
           style="fill:none;stroke:#000000;stroke-width:0.07937501"
           inkscape:label="SubminorXDiv3:0:8"
           id="path19370" />
        <path
           inkscape:connector-curvature="0"
           d="M 0,77.390625 H 158.75"
           style="fill:none;stroke:#000000;stroke-width:0.07937501"
           inkscape:label="SubminorXDiv3:0:9"
           id="path19372" />
        <path
           inkscape:connector-curvature="0"
           d="M 0,81.359375 H 158.75"
           style="fill:none;stroke:#000000;stroke-width:0.07937501"
           inkscape:label="SubminorXDiv4:0:1"
           id="path19374" />
        <path
           inkscape:connector-curvature="0"
           d="M 0,83.34375 H 158.75"
           style="fill:none;stroke:#000000;stroke-width:0.07937501"
           inkscape:label="SubminorXDiv4:0:2"
           id="path19376" />
        <path
           inkscape:connector-curvature="0"
           d="M 0,85.328125 H 158.75"
           style="fill:none;stroke:#000000;stroke-width:0.07937501"
           inkscape:label="SubminorXDiv4:0:3"
           id="path19378" />
        <path
           inkscape:connector-curvature="0"
           d="M 0,87.3125 H 158.75"
           style="fill:none;stroke:#000000;stroke-width:0.07937501"
           inkscape:label="SubminorXDiv4:0:4"
           id="path19380" />
        <path
           inkscape:connector-curvature="0"
           d="M 0,89.296875 H 158.75"
           style="fill:none;stroke:#000000;stroke-width:0.07937501"
           inkscape:label="SubminorXDiv4:0:5"
           id="path19382" />
        <path
           inkscape:connector-curvature="0"
           d="M 0,91.28125 H 158.75"
           style="fill:none;stroke:#000000;stroke-width:0.07937501"
           inkscape:label="SubminorXDiv4:0:6"
           id="path19384" />
        <path
           inkscape:connector-curvature="0"
           d="M 0,93.265625 H 158.75"
           style="fill:none;stroke:#000000;stroke-width:0.07937501"
           inkscape:label="SubminorXDiv4:0:7"
           id="path19386" />
        <path
           inkscape:connector-curvature="0"
           d="M 0,95.25 H 158.75"
           style="fill:none;stroke:#000000;stroke-width:0.07937501"
           inkscape:label="SubminorXDiv4:0:8"
           id="path19388" />
        <path
           inkscape:connector-curvature="0"
           d="M 0,97.234375 H 158.75"
           style="fill:none;stroke:#000000;stroke-width:0.07937501"
           inkscape:label="SubminorXDiv4:0:9"
           id="path19390" />
        <path
           inkscape:connector-curvature="0"
           d="M 0,101.20312 H 158.75"
           style="fill:none;stroke:#000000;stroke-width:0.07937501"
           inkscape:label="SubminorXDiv5:0:1"
           id="path19392" />
        <path
           inkscape:connector-curvature="0"
           d="M 0,103.1875 H 158.75"
           style="fill:none;stroke:#000000;stroke-width:0.07937501"
           inkscape:label="SubminorXDiv5:0:2"
           id="path19394" />
        <path
           inkscape:connector-curvature="0"
           d="M 0,105.17187 H 158.75"
           style="fill:none;stroke:#000000;stroke-width:0.07937501"
           inkscape:label="SubminorXDiv5:0:3"
           id="path19396" />
        <path
           inkscape:connector-curvature="0"
           d="M 0,107.15625 H 158.75"
           style="fill:none;stroke:#000000;stroke-width:0.07937501"
           inkscape:label="SubminorXDiv5:0:4"
           id="path19398" />
        <path
           inkscape:connector-curvature="0"
           d="M 0,109.14062 H 158.75"
           style="fill:none;stroke:#000000;stroke-width:0.07937501"
           inkscape:label="SubminorXDiv5:0:5"
           id="path19400" />
        <path
           inkscape:connector-curvature="0"
           d="M 0,111.125 H 158.75"
           style="fill:none;stroke:#000000;stroke-width:0.07937501"
           inkscape:label="SubminorXDiv5:0:6"
           id="path19402" />
        <path
           inkscape:connector-curvature="0"
           d="M 0,113.10937 H 158.75"
           style="fill:none;stroke:#000000;stroke-width:0.07937501"
           inkscape:label="SubminorXDiv5:0:7"
           id="path19404" />
        <path
           inkscape:connector-curvature="0"
           d="M 0,115.09375 H 158.75"
           style="fill:none;stroke:#000000;stroke-width:0.07937501"
           inkscape:label="SubminorXDiv5:0:8"
           id="path19406" />
        <path
           inkscape:connector-curvature="0"
           d="M 0,117.07812 H 158.75"
           style="fill:none;stroke:#000000;stroke-width:0.07937501"
           inkscape:label="SubminorXDiv5:0:9"
           id="path19408" />
      </g>
      <rect
         height="119.0625"
         style="fill:none;stroke:#000000;stroke-width:0.52916664"
         width="158.75"
         x="0"
         y="0"
         inkscape:label="Border"
         id="rect19412" />
    </g>
  </g>
</svg>
